A Database of Allometric Equations for ForestGEO • allodb
…
Example

library(allodb)

# Just for these examples
library(tibble)
library(purrr)
library(glue)

Combined data-base tables.

master()
#> Joining `equations` and `sitespecies` by 'equation_id'; then `sites_info` by 'site'.
#> # A tibble: 769 x 43
#>    ref_id equation_id equation_allome… equation_form dependent_varia…
#>    <chr>  <chr>       <chr>            <chr>         <chr>           
#>  1 jenki… 2060ea      10^(1.1891+1.41… 10^(a+b*(log… Total abovegrou…
#>  2 jenki… 2060ea      10^(1.1891+1.41… 10^(a+b*(log… Total abovegrou…
#>  3 jenki… a4d879      10^(1.2315+1.63… 10^(a+b*(log… Total abovegrou…
#>  4 jenki… a4d879      10^(1.2315+1.63… 10^(a+b*(log… Total abovegrou…
#>  5 jenki… c59e03      exp(7.217+1.514… exp(a+b*log(… Stem biomass (w…
#>  6 jenki… c59e03      exp(7.217+1.514… exp(a+b*log(… Stem biomass (w…
#>  7 jenki… c59e03      exp(7.217+1.514… exp(a+b*log(… Stem biomass (w…
#>  8 jenki… c59e03      exp(7.217+1.514… exp(a+b*log(… Stem biomass (w…
#>  9 jenki… c59e03      exp(7.217+1.514… exp(a+b*log(… Stem biomass (w…
#> 10 jenki… c59e03      exp(7.217+1.514… exp(a+b*log(… Stem biomass (w…
#> # … with 759 more rows, and 38 more variables: independent_variable <chr>,
#> #   allometry_specificity <chr>, geographic_area <chr>, dbh_min_cm <chr>,
#> #   dbh_max_cm <chr>, sample_size <chr>, dbh_units_original <chr>,
#> #   biomass_units_original <chr>, allometry_development_method <chr>,
#> #   regression_model <chr>, other_equations_tested <chr>,
#> #   log_biomass <chr>, bias_corrected <chr>, bias_correction_factor <chr>,
#> #   notes_fitting_model <chr>, original_data_availability <chr>,
#> #   warning <chr>, site <chr>, family <chr>, species <chr>,
#> #   species_code <chr>, life_form <chr>, equation_group <chr>,
…
if (length(result) == 0)
  message(glue("No values match {na_type}"))
#> No values match ^NA$|^NAC$|^NRA$|^NI$

All datasets.

# Helper
datasets <- function(pkg) {
  dts <- sort(utils::data(package = pkg)$results[ , "Item"])
  set_names(map(dts, get), dts)
}

datasets("allodb")
#> $equations
#> # A tibble: 175 x 22
#>    ref_id equation_id equation_allome… equation_form dependent_varia…
#>    <chr>  <chr>       <chr>            <chr>         <chr>           
#>  1 jenki… 2060ea      10^(1.1891+1.41… 10^(a+b*(log… Total abovegrou…
#>  2 jenki… a4d879      10^(1.2315+1.63… 10^(a+b*(log… Total abovegrou…
#>  3 jenki… c59e03      exp(7.217+1.514… exp(a+b*log(… Stem biomass (w…
#>  4 jenki… 96c0af      10^(2.5368+1.31… 10^(a+b*(log… Branches (live,…
#>  5 jenki… 529234      10^(2.0865+0.94… 10^(a+b*(log… Foliage total   
#>  6 jenki… ae65ed      exp(-2.48+2.483… exp(a+b*log(… Total abovegrou…
#>  7 marti… 9c4cc9      10^(-1.326+2.76… 10^(a+b*(log… Total abovegrou…
#>  8 chojn… 7f7777      exp(-2.5095+2.5… exp(a+b*log(… Total abovegrou…
#>  9 jenki… cf733d      exp(5.67+1.97*l… exp(a+b*log(… Total abovegrou…
#> 10 chojn… f08fff      exp(-2.2118+2.4… exp(a+b*log(… Total abovegrou…
#> # … with 165 more rows, and 17 more variables: independent_variable <chr>,
#> #   allometry_specificity <chr>, geographic_area <chr>, dbh_min_cm <chr>,
#> #   dbh_max_cm <chr>, sample_size <chr>, dbh_units_original <chr>,
#> #   biomass_units_original <chr>, allometry_development_method <chr>,
#> #   regression_model <chr>, other_equations_tested <chr>,
#> #   log_biomass <chr>, bias_corrected <chr>, bias_correction_factor <chr>,
#> #   notes_fitting_model <chr>, original_data_availability <chr>,
#> #   warning <chr>
#> 
#> $equations_metadata
#> # A tibble: 22 x 7
#>    Column Field     Description        Column_type Field_codes Units Range 
#>    <chr>  <chr>     <chr>              <chr>       <chr>       <chr> <chr> 
#>  1 1 / A  ref_id    Unique reference … character   <NA>        <NA>  <NA>  
#>  2 2 / B  equation… Unique equation i… <NA>        <NA>        <NA>  <NA>  
#>  3 3 / C  equation… Equation to calcu… character   <NA>        <NA>  <NA>  
#>  4 4 / D  equation… Algebraic form of… character   <NA>        <NA>  <NA>  
#>  5 5 / E  dependen… Tree component ch… character   <NA>        <NA>  <NA>  
#>  6 6 / F  independ… Parameters includ… character   <NA>        <NA>  <NA>  
#>  7 7 / G  allometr… Specific taxonomi… character   <NA>        <NA>  <NA>  
#>  8 8 / H  geograph… Geographic locati… character   <NA>        <NA>  <NA>  
#>  9 9 / I  dbh_min_… Minimun DBH (cm) … numeric     <NA>        <NA>  Give …
#> 10 10 / J dbh_max_… Maximun DBH (cm) … numeric     <NA>        <NA>  Give …
#> # … with 12 more rows
…
#> 
#> $references_metadata
#> # A tibble: 7 x 4
#>   Column Field          Description                           Colum_type   
#>   <chr>  <chr>          <chr>                                 <chr>        
#> 1 1 / A  ref_id         Unique reference identification numb… numeric      
#> 2 2 / B  ref_doi        Publication DOI (Digital object iden… character (s…
#> 3 3 / C  ref_author     Last name of first author of a cited… character (s…
#> 4 4 / D  ref_year       Year of publication                   numeric      
#> 5 5 / E  ref_title      Title of publication                  character (s…
#> 6 6 / F  ref_journal    Journal, book, report where published character (s…
#> 7 7 / G  References fu… Full citation (kept for easy use)     character (s…
#> 
#> $sites_info
#> # A tibble: 68 x 12
#>    id    Site  site  lat   long  UTM_Zone UTM_X UTM_Y intertropical size.ha
#>    <chr> <chr> <chr> <chr> <chr> <chr>    <chr> <chr> <chr>         <chr>  
#>  1 42    Amac… amac… -3.81 -70.… 19       3592… 9578… Tropical      25     
#>  2 51    Bada… bada… 29.46 110.… 49       4534… 3259… Other         25     
#>  3 52    Baot… baot… 33.5  111.… 49       5873… 3706… Other         25     
#>  4 45    Barr… bci   9.15  -79.… 17       6267… 1012… Tropical      50     
#>  5 18    Buki… buki… 1.35  103.… 48       3642… 1492… Tropical      4      
#>  6 53    Chan… chan… 42.38 128.… 52       4245… 4692… Other         25     
#>  7 46    Coco… coco… 8.99  -79.… 17       6520… 9937… Tropical      4      
#>  8 14    Danu… danu… 5.1   117.… 50       5762… 5639… Tropical      50     
#>  9 7     Ding… ding… 23.17 112.… 49       6546… 2563… Tropical      20     
#> 10 25    Doi … doi … 18.58 98.43 47       4402… 2054… Tropical      15     
#> # … with 58 more rows, and 2 more variables: E <chr>, wsg.site.name <chr>
#> 
#> $sitespecies
#> # A tibble: 772 x 11
#>    site  family species species_code life_form equation_group equation_id
#>    <chr> <chr>  <chr>   <chr>        <chr>     <chr>          <chr>      
#>  1 lill… Sapin… Acer r… 316          Tree      Expert         7c72ed     
#>  2 lill… Sapin… Acer r… 316          Tree      Expert         2060ea     
#>  3 lill… Sapin… Acer s… 318          Tree      Expert         a4d879     
#>  4 lill… Rosac… Amelan… 356          Tree      Expert         c59e03     
#>  5 lill… Rosac… Amelan… 356          Tree      Expert         96c0af     
#>  6 lill… Rosac… Amelan… 356          Tree      Expert         529234     
#>  7 lill… Annon… Asimin… 367          Tree      Generic        ae65ed     
#>  8 lill… Betul… Carpin… 391          Tree      Generic        ae65ed     
#>  9 lill… Jugla… Carya … 409          Tree      Expert         9c4cc9     
#> 10 lill… Jugla… Carya … 402          Tree      Expert         9c4cc9     
#> # … with 762 more rows, and 4 more variables: equation_taxa <chr>,
#> #   notes_on_species <chr>, wsg_id <chr>, wsg_specificity <chr>
…
#>    <chr>  <chr>   <chr>                <chr>       <chr>        <chr> <chr>
#>  1 1 / A  site    ForestGEO site name… character   <NA>         <NA>  <NA> 
#>  2 2 / B  family  Plant family name a… character   <NA>         <NA>  <NA> 
#>  3 3 / C  species Plant scientific na… character   <NA>         <NA>  <NA> 
#>  4 4 / D  specie… Species code used a… character   <NA>         <NA>  <NA> 
#>  5 5 / E  life_f… Common growth form … character   <NA>         <NA>  <NA> 
#>  6 6 / F  equati… "Allometric equatio… character   Generic; Ex… <NA>  <NA> 
#>  7 7 / G  equati… Unique equation ide… character   <NA>         <NA>  <NA> 
#>  8 8 / H  equati… Species, genus, fam… character … <NA>         <NA>  <NA> 
#>  9 9 / I  notes_… Informative notes o… character   <NA>         <NA>  <NA> 
#> 10 10 / J wsg_id  Wood density identi… numeric     <NA>         <NA>  <NA> 
#> 11 11 / K wsg_sp… Refers to the speci… character   <NA>         <NA>  <NA> 
#> 
#> $wsg
#> # A tibble: 549 x 8
#>    wsg_id family  species    wsg   wsg_specificity sample_size site  ref_id
#>    <chr>  <chr>   <chr>      <chr> <chr>           <chr>       <chr> <chr> 
#>  1 <NA>   Sapind… Acer rubr… 0.49  <NA>            <NA>        Lill… <NA>  
#>  2 <NA>   Sapind… Acer sacc… 0.56  <NA>            <NA>        Lill… <NA>  
#>  3 <NA>   Rosace… Amelanchi… 0.66  <NA>            <NA>        Lill… <NA>  
#>  4 <NA>   Annona… Asimina t… 0.47  <NA>            <NA>        Lill… <NA>  
#>  5 <NA>   Betula… Carpinus … 0.58  <NA>            <NA>        Lill… <NA>  
#>  6 <NA>   Juglan… Carya alba 0.62  <NA>            10          Lill… <NA>  
#>  7 <NA>   Juglan… Carya cor… 0.6   <NA>            10          Lill… <NA>  
#>  8 <NA>   Juglan… Carya gla… 0.66  <NA>            10          Lill… <NA>  
#>  9 <NA>   Juglan… Carya ova… 0.62  <NA>            <NA>        Lill… <NA>  
#> 10 <NA>   Cannab… Celtis oc… 0.49  <NA>            <NA>        Lill… <NA>  
#> # … with 539 more rows
…
