…
master()
#> Joining `equations` and `sitespecies` by 'equation_id'; then `sites_info` by 'site'.
#> # A tibble: 780 x 43
#>    ref_id equation_id equation_allome… equation_form dependent_varia…
#>    <chr>  <chr>       <chr>            <chr>         <chr>           
#>  1 jenki… 2060ea      10^(1.1891+1.41… 10^(a+b*(log… Total abovegrou…
#>  2 jenki… 2060ea      10^(1.1891+1.41… 10^(a+b*(log… Total abovegrou…
#>  3 jenki… a4d879      10^(1.2315+1.63… 10^(a+b*(log… Total abovegrou…
#>  4 jenki… a4d879      10^(1.2315+1.63… 10^(a+b*(log… Total abovegrou…
#>  5 jenki… c59e03      exp(7.217+1.514… exp(a+b*log(… Stem biomass (w…
#>  6 jenki… c59e03      exp(7.217+1.514… exp(a+b*log(… Stem biomass (w…
#>  7 jenki… c59e03      exp(7.217+1.514… exp(a+b*log(… Stem biomass (w…
#>  8 jenki… c59e03      exp(7.217+1.514… exp(a+b*log(… Stem biomass (w…
#>  9 jenki… c59e03      exp(7.217+1.514… exp(a+b*log(… Stem biomass (w…
#> 10 jenki… c59e03      exp(7.217+1.514… exp(a+b*log(… Stem biomass (w…
#> # … with 770 more rows, and 38 more variables: independent_variable <chr>,
#> #   allometry_specificity <chr>, geographic_area <chr>, dbh_min_cm <chr>,
#> #   dbh_max_cm <chr>, sample_size <chr>, dbh_units_original <chr>,
#> #   biomass_units_original <chr>, allometry_development_method <chr>,
#> #   regression_model <chr>, other_equations_tested <chr>, log_biomass <chr>,
#> #   bias_corrected <chr>, bias_correction_factor <chr>,
#> #   notes_fitting_model <chr>, original_data_availability <chr>, warning <chr>,
#> #   site <chr>, family <chr>, species <chr>, species_code <chr>,
#> #   life_form <chr>, equation_group <chr>, equation_taxa <chr>,
…
